{
    "modules": [
        {
            "config": {
                "position": [
                    143,
                    137
                ]
            },
            "name": "New Model Object",
            "value": {
                "actionGroup": {
                    "_default0_list": false,
                    "_default1_show": false,
                    "_default2_new_create": false,
                    "_default3_edit_update": false,
                    "_default4_delete": false,
                    "customActions": [
                        "renderContactperson"
                    ]
                },
                "name": "Contactperson",
                "objectsettings": {
                    "addDeletedField": true,
                    "addHiddenField": true,
                    "addStarttimeEndtimeFields": true,
                    "aggregateRoot": true,
                    "categorizable": false,
                    "description": "",
                    "mapToTable": "",
                    "parentClass": "",
                    "sorting": false,
                    "type": "Entity",
                    "uid": "224711142608"
                },
                "propertyGroup": {
                    "properties": [
                        {
                            "allowedFileTypes": "",
                            "maxItems": "1",
                            "propertyDescription": "",
                            "propertyIsExcludeField": false,
                            "propertyIsRequired": true,
                            "propertyName": "backendTitle",
                            "propertyType": "String",
                            "uid": "1196321080727"
                        },
                        {
                            "allowedFileTypes": "",
                            "maxItems": "1",
                            "propertyDescription": "",
                            "propertyIsExcludeField": false,
                            "propertyIsRequired": true,
                            "propertyName": "name",
                            "propertyType": "String",
                            "uid": "1353371876545"
                        },
                        {
                            "allowedFileTypes": "",
                            "maxItems": "1",
                            "propertyDescription": "",
                            "propertyIsExcludeField": false,
                            "propertyIsRequired": false,
                            "propertyName": "image",
                            "propertyType": "Image",
                            "uid": "1509602985568"
                        },
                        {
                            "allowedFileTypes": "",
                            "maxItems": "1",
                            "propertyDescription": "",
                            "propertyIsExcludeField": false,
                            "propertyIsRequired": false,
                            "propertyName": "phone",
                            "propertyType": "String",
                            "uid": "805531365396"
                        },
                        {
                            "allowedFileTypes": "",
                            "maxItems": "1",
                            "propertyDescription": "",
                            "propertyIsExcludeField": false,
                            "propertyIsRequired": false,
                            "propertyName": "mobile",
                            "propertyType": "String",
                            "uid": "1385586117389"
                        },
                        {
                            "allowedFileTypes": "",
                            "maxItems": "1",
                            "propertyDescription": "",
                            "propertyIsExcludeField": false,
                            "propertyIsRequired": false,
                            "propertyName": "fax",
                            "propertyType": "String",
                            "uid": "965516474558"
                        },
                        {
                            "allowedFileTypes": "",
                            "maxItems": "1",
                            "propertyDescription": "",
                            "propertyIsExcludeField": false,
                            "propertyIsRequired": false,
                            "propertyName": "email",
                            "propertyType": "String",
                            "uid": "1352025570689"
                        },
                        {
                            "allowedFileTypes": "",
                            "maxItems": "1",
                            "propertyDescription": "",
                            "propertyIsExcludeField": false,
                            "propertyIsRequired": false,
                            "propertyName": "url",
                            "propertyType": "String",
                            "uid": "271300932936"
                        },
                        {
                            "allowedFileTypes": "",
                            "maxItems": "1",
                            "propertyDescription": "",
                            "propertyIsExcludeField": false,
                            "propertyIsRequired": false,
                            "propertyName": "additional",
                            "propertyType": "RichText",
                            "uid": "351292824563"
                        }
                    ]
                },
                "relationGroup": {
                    "relations": [
                        {
                            "foreignRelationClass": "",
                            "lazyLoading": false,
                            "propertyIsExcludeField": false,
                            "relationDescription": "",
                            "relationName": "sector",
                            "relationType": "manyToOne",
                            "relationWire": "[wired]",
                            "renderType": "selectSingle",
                            "uid": "281415901123"
                        }
                    ]
                }
            }
        },
        {
            "config": {
                "position": [
                    469,
                    120
                ]
            },
            "name": "New Model Object",
            "value": {
                "actionGroup": {
                    "_default0_list": false,
                    "_default1_show": false,
                    "_default2_new_create": false,
                    "_default3_edit_update": false,
                    "_default4_delete": false,
                    "customActions": [
                        "renderContactsector"
                    ]
                },
                "name": "Contactsector",
                "objectsettings": {
                    "addDeletedField": true,
                    "addHiddenField": true,
                    "addStarttimeEndtimeFields": true,
                    "aggregateRoot": true,
                    "categorizable": false,
                    "description": "",
                    "mapToTable": "",
                    "parentClass": "",
                    "sorting": false,
                    "type": "Entity",
                    "uid": "982190446962"
                },
                "propertyGroup": {
                    "properties": [
                        {
                            "allowedFileTypes": "",
                            "maxItems": "1",
                            "propertyDescription": "",
                            "propertyIsExcludeField": false,
                            "propertyIsRequired": true,
                            "propertyName": "title",
                            "propertyType": "String",
                            "uid": "259573775209"
                        }
                    ]
                },
                "relationGroup": {
                    "relations": []
                }
            }
        }
    ],
    "properties": {
        "backendModules": [],
        "description": "",
        "emConf": {
            "category": "plugin",
            "custom_category": "",
            "dependsOn": "typo3 => 10.4.0-10.9.99\n",
            "disableLocalization": false,
            "disableVersioning": false,
            "skipGenerateDocumentationTemplate": false,
            "sourceLanguage": "en",
            "state": "alpha",
            "targetVersion": "10.4.0-10.9.99",
            "version": "10.4.3"
        },
        "extensionKey": "hive_cpt_cnt_contactperson",
        "name": "hive_cpt_cnt_contactperson",
        "originalExtensionKey": "hive_cpt_cnt_contactperson",
        "originalVendorName": "HIVE",
        "persons": [
            {
                "company": "teufels GmbH",
                "name": " Albert Giss",
                "email": "a.giss@teufels.com",
                "homepage": "https://teufels.com",
                "role": "Developer"
            },
            {
                "company": "teufels GmbH",
                "name": "Alexander Neher",
                "email": "a.neher@teufels.com",
                "homepage": "https://teufels.com",
                "role": "Developer"
            },
            {
                "company": "teufels GmbH",
                "name": "Andreas Hafner",
                "email": "a.hafner@teufels.com",
                "homepage": "https://teufels.com",
                "role": "Developer"
            },
            {
                "company": "teufels GmbH",
                "name": "Bastian Holzem",
                "email": "b.holzem@teufels.com",
                "homepage": "https://teufels.com",
                "role": "Developer"
            },
            {
                "company": "teufels GmbH",
                "name": "Hendrik Krueger",
                "email": "h.krueger@teufels.com",
                "homepage": "https://teufels.com",
                "role": "Developer"
            },
            {
                "company": "teufels GmbH",
                "name": "Marcel Weber",
                "email": "m.weber@teufels.com",
                "homepage": "https://teufels.com",
                "role": "Developer"
            },
            {
                "company": "teufels GmbH",
                "name": "Timo Bittner",
                "email": "t.bittner@teufels.com",
                "homepage": "https://teufels.com",
                "role": "Developer"
            },
            {
                "company": "teufels GmbH",
                "name": "Yannick Aister",
                "email": "y.aister@teufels",
                "homepage": "https://teufels.com",
                "role": "Developer"
            }
        ],
        "plugins": [
            {
                "actions": {
                    "controllerActionCombinations": "Contactperson => renderContactperson",
                    "noncacheableActions": "",
                    "switchableActions": ""
                },
                "key": "hivecptcntcontactpersonrendercontactperson",
                "name": "hive_cpt_cnt_contactperson :: renderContactperson"
            },
            {
                "actions": {
                    "controllerActionCombinations": "Contactsector => renderContactsector",
                    "noncacheableActions": "",
                    "switchableActions": ""
                },
                "key": "hivecptcntcontactpersonrendercontactsector",
                "name": "hive_cpt_cnt_contactperson :: renderContactsector"
            }
        ],
        "vendorName": "HIVE"
    },
    "wires": [
        {
            "src": {
                "moduleId": 0,
                "terminal": "relationWire_0",
                "uid": "281415901123"
            },
            "tgt": {
                "moduleId": 1,
                "terminal": "SOURCES",
                "uid": "982190446962"
            }
        }
    ],
    "log": {
        "last_modified": "2020-07-09 14:00",
        "extension_builder_version": "8.7.0",
        "be_user": " (1)"
    }
}